{
	"agcgw":{
		"backurl":"connect-dre.dbankcloud.cn",
		"url":"connect-dre.hispace.hicloud.com"
	},
	"client":{
		"cp_id":"5190001000034272386",
		"product_id":"736430079244599075",
		"client_id":"427697716940768384",
		"client_secret":"476086D18316D055B5967D86168F959FF8B7ACC48CC55FECC5F3AF002FA2E2BF",
		"app_id":"102725637",
		"package_name":"com.shakingearthdigital.dtmtest",
		"api_key":"CgB6e3x9lOZLgsAnEcCqguVb2yaNMnegZQae4fyUjwalP5yirVmdyzGQpFVb2XOGmdhglV4KA6jp//yoydpuMoNH"
	},
	"service":{
		"analytics":{
			"collector_url":"datacollector-dre.dt.hicloud.com,datacollector-dre.dt.dbankcloud.cn",
			"resource_id":"p1",
			"channel_id":""
		},
		"cloudstorage":{
			"storage_url":"https://ops-dre.agcstorage.link"
		},
		"ml":{
			"mlservice_url":"ml-api-dre.ai.dbankcloud.com,ml-api-dre.ai.dbankcloud.cn"
		}
	},
	"region":"DE",
	"configuration_version":"1.0"
}